{
  "name": "dns",
  "description": "",
  "json_class": "Chef::Role",
  "default_attributes": {
  },
  "override_attributes": {
  },
  "chef_type": "role",
  "run_list": [
    "recipe[dns]"
  ],
  "env_run_lists": {
  }
}
